module github.com/sidmoreoss/uwal

go 1.23.3

require (
	github.com/atotto/clipboard v0.1.4
	github.com/vbauerster/mpb/v8 v8.8.3
)

require (
	github.com/VividCortex/ewma v1.2.0 // indirect
	github.com/acarl005/stripansi v0.0.0-20180116102854-5a71ef0e047d // indirect
	github.com/mattn/go-runewidth v0.0.16 // indirect
	github.com/rivo/uniseg v0.4.7 // indirect
	golang.org/x/sys v0.27.0 // indirect
)
